docs/unidade5_cap2_fsm/dump_moore.vcd
$date
	Tue May 12 05:01:33 2026
$end
$version
	Icarus Verilog
$end
$timescale
	1ps
$end
$scope module tb_moore $end
$var wire 1 ! sequence_detected $end
$var reg 1 " clk $end
$var reg 1 # rst_n $end
$var reg 1 $ x $end
$var integer 32 % acertos [31:0] $end
$var integer 32 & erros [31:0] $end
$scope module dut $end
$var wire 1 " clk $end
$var wire 1 # rst_n $end
$var wire 1 $ x $end
$var parameter 32 ' DATA_WIDTH $end
$var reg 2 ( next_state [1:0] $end
$var reg 1 ! sequence_detected $end
$var reg 2 ) state [1:0] $end
$upscope $end
$scope task aplica_bit $end
$upscope $end
$upscope $end
$enddefinitions $end
$comment Show the parameter values. $end
$dumpall
b1 '
$end
#0
$dumpvars
b0 )
b0 (
b0 &
b0 %
0$
0#
0"
0!
$end
#5000
1"
#6000
b1 (
1$
1#
#10000
0"
#15000
b1 )
1"
#16000
b1 %
#20000
0"
#25000
1"
#26000
b10 (
0$
b10 %
#30000
0"
#35000
b0 (
b10 )
1"
#36000
b11 (
1$
b11 %
#40000
0"
#45000
1!
b1 (
b11 )
1"
#46000
b10 (
0$
b100 %
#50000
0"
#55000
0!
b0 (
b10 )
1"
#56000
b101 %
#60000
0"
#65000
b0 )
1"
#66000
b1 (
1$
b110 %
#70000
0"
#75000
b1 )
1"
#76000
b10 (
0$
b111 %
#80000
0"
#85000
b0 (
b10 )
1"
#86000
b11 (
1$
b1000 %
#90000
0"
#95000
1!
b1 (
b11 )
1"
#96000
b1001 %
#100000
0"
#105000
0!
b1 )
1"
#106000
b1010 %
#110000
0"
#115000
1"
#116000
b1011 %
