docs/unidade5_cap2_fsm/dump_mealy.vcd
$date
	Tue May 12 05:03:25 2026
$end
$version
	Icarus Verilog
$end
$timescale
	1ps
$end
$scope module tb_mealy $end
$var wire 1 ! sequence_detected $end
$var reg 1 " clk $end
$var reg 1 # rst_n $end
$var reg 1 $ x $end
$var integer 32 % acertos [31:0] $end
$var integer 32 & erros [31:0] $end
$scope module dut $end
$var wire 1 " clk $end
$var wire 1 # rst_n $end
$var wire 1 $ x $end
$var parameter 32 ' DATA_WIDTH $end
$var reg 2 ( next_state [1:0] $end
$var reg 1 ! sequence_detected $end
$var reg 2 ) state [1:0] $end
$upscope $end
$scope task aplica_bit $end
$upscope $end
$upscope $end
$enddefinitions $end
$comment Show the parameter values. $end
$dumpall
b1 '
$end
#0
$dumpvars
b0 )
b0 (
b0 &
b0 %
0$
0#
0"
0!
$end
#5000
1"
#6000
b1 (
1$
1#
#9000
b1 %
#10000
0"
#15000
b1 )
1"
#19000
b10 %
#20000
0"
#25000
1"
#26000
b10 (
0$
#29000
b11 %
#30000
0"
#35000
b0 (
b10 )
1"
#36000
b1 (
1!
1$
#39000
b100 %
#40000
0"
#45000
0!
b1 )
1"
#46000
b10 (
0$
#49000
b101 %
#50000
0"
#55000
b0 (
b10 )
1"
#59000
b110 %
#60000
0"
#65000
b0 )
1"
#66000
b1 (
1$
#69000
b111 %
#70000
0"
#75000
b1 )
1"
#76000
b10 (
0$
#79000
b1000 %
#80000
0"
#85000
b0 (
b10 )
1"
#86000
b1 (
1!
1$
#89000
b1001 %
#90000
0"
#95000
0!
b1 )
1"
#99000
b1010 %
#100000
0"
#105000
1"
#109000
b1011 %
